<?xml version="1.0" encoding="UTF-8" standalone="no"?>
<!-- Created with Inkscape (http://www.inkscape.org/) -->

<svg
   xmlns:dc="http://purl.org/dc/elements/1.1/"
   xmlns:cc="http://creativecommons.org/ns#"
   xmlns:rdf="http://www.w3.org/1999/02/22-rdf-syntax-ns#"
   xmlns:svg="http://www.w3.org/2000/svg"
   xmlns="http://www.w3.org/2000/svg"
   xmlns:xlink="http://www.w3.org/1999/xlink"
   xmlns:sodipodi="http://sodipodi.sourceforge.net/DTD/sodipodi-0.dtd"
   xmlns:inkscape="http://www.inkscape.org/namespaces/inkscape"
   width="210mm"
   height="297mm"
   viewBox="0 0 210 297"
   version="1.1"
   id="svg8"
   inkscape:version="0.92.3 (2405546, 2018-03-11)"
   sodipodi:docname="boardBG.svg"
   inkscape:export-filename="C:\Projets\ld44\LD44\LD44\Content\boardBG.png"
   inkscape:export-xdpi="96"
   inkscape:export-ydpi="96">
  <defs
     id="defs2">
    <marker
       style="overflow:visible"
       inkscape:stockid="InfiniteLineEnd"
       id="InfiniteLineEnd"
       refX="0"
       refY="0"
       orient="auto"
       inkscape:isstock="true">
      <g
         id="g3008"
         style="fill:#9f7d7d;stroke:#9f7d7d;stroke-opacity:1;fill-opacity:1">
        <circle
           id="circle3002"
           r="0.8"
           cy="0"
           cx="3"
           style="stroke:#9f7d7d;stroke-opacity:1;fill:#9f7d7d;fill-opacity:1" />
        <circle
           id="circle3004"
           r="0.8"
           cy="0"
           cx="6.5"
           style="stroke:#9f7d7d;stroke-opacity:1;fill:#9f7d7d;fill-opacity:1" />
        <circle
           id="circle3006"
           r="0.8"
           cy="0"
           cx="10"
           style="stroke:#9f7d7d;stroke-opacity:1;fill:#9f7d7d;fill-opacity:1" />
      </g>
    </marker>
    <inkscape:path-effect
       effect="bspline"
       id="path-effect2765"
       is_visible="true"
       weight="33.333333"
       steps="2"
       helper_size="0"
       apply_no_weight="true"
       apply_with_weight="true"
       only_selected="false" />
    <marker
       style="overflow:visible"
       inkscape:stockid="InfiniteLineEnd"
       id="InfiniteLineEnd-9"
       refX="0"
       refY="0"
       orient="auto"
       inkscape:isstock="true">
      <g
         id="g3008-2"
         style="fill:#9f7d7d;fill-opacity:1;stroke:#9f7d7d;stroke-opacity:1">
        <circle
           id="circle3002-4"
           r="0.80000001"
           cy="0"
           cx="3"
           style="fill:#9f7d7d;fill-opacity:1;stroke:#9f7d7d;stroke-opacity:1" />
        <circle
           id="circle3004-7"
           r="0.80000001"
           cy="0"
           cx="6.5"
           style="fill:#9f7d7d;fill-opacity:1;stroke:#9f7d7d;stroke-opacity:1" />
        <circle
           id="circle3006-5"
           r="0.80000001"
           cy="0"
           cx="10"
           style="fill:#9f7d7d;fill-opacity:1;stroke:#9f7d7d;stroke-opacity:1" />
      </g>
    </marker>
    <inkscape:path-effect
       effect="bspline"
       id="path-effect2765-8"
       is_visible="true"
       weight="33.333333"
       steps="2"
       helper_size="0"
       apply_no_weight="true"
       apply_with_weight="true"
       only_selected="false" />
    <marker
       style="overflow:visible"
       inkscape:stockid="InfiniteLineEnd"
       id="InfiniteLineEnd-9-0"
       refX="0"
       refY="0"
       orient="auto"
       inkscape:isstock="true">
      <g
         id="g3008-2-0"
         style="fill:#9f7d7d;fill-opacity:1;stroke:#9f7d7d;stroke-opacity:1">
        <circle
           id="circle3002-4-6"
           r="0.80000001"
           cy="0"
           cx="3"
           style="fill:#9f7d7d;fill-opacity:1;stroke:#9f7d7d;stroke-opacity:1" />
        <circle
           id="circle3004-7-1"
           r="0.80000001"
           cy="0"
           cx="6.5"
           style="fill:#9f7d7d;fill-opacity:1;stroke:#9f7d7d;stroke-opacity:1" />
        <circle
           id="circle3006-5-4"
           r="0.80000001"
           cy="0"
           cx="10"
           style="fill:#9f7d7d;fill-opacity:1;stroke:#9f7d7d;stroke-opacity:1" />
      </g>
    </marker>
    <inkscape:path-effect
       effect="bspline"
       id="path-effect2765-8-2"
       is_visible="true"
       weight="33.333333"
       steps="2"
       helper_size="0"
       apply_no_weight="true"
       apply_with_weight="true"
       only_selected="false" />
    <marker
       style="overflow:visible"
       inkscape:stockid="InfiniteLineEnd"
       id="InfiniteLineEnd-9-0-6"
       refX="0"
       refY="0"
       orient="auto"
       inkscape:isstock="true">
      <g
         id="g3008-2-0-6"
         style="fill:#9f7d7d;fill-opacity:1;stroke:#9f7d7d;stroke-opacity:1">
        <circle
           id="circle3002-4-6-8"
           r="0.80000001"
           cy="0"
           cx="3"
           style="fill:#9f7d7d;fill-opacity:1;stroke:#9f7d7d;stroke-opacity:1" />
        <circle
           id="circle3004-7-1-8"
           r="0.80000001"
           cy="0"
           cx="6.5"
           style="fill:#9f7d7d;fill-opacity:1;stroke:#9f7d7d;stroke-opacity:1" />
        <circle
           id="circle3006-5-4-1"
           r="0.80000001"
           cy="0"
           cx="10"
           style="fill:#9f7d7d;fill-opacity:1;stroke:#9f7d7d;stroke-opacity:1" />
      </g>
    </marker>
    <inkscape:path-effect
       effect="bspline"
       id="path-effect2765-8-2-6"
       is_visible="true"
       weight="33.333333"
       steps="2"
       helper_size="0"
       apply_no_weight="true"
       apply_with_weight="true"
       only_selected="false" />
    <marker
       style="overflow:visible"
       inkscape:stockid="InfiniteLineEnd"
       id="InfiniteLineEnd-9-0-6-0"
       refX="0"
       refY="0"
       orient="auto"
       inkscape:isstock="true">
      <g
         id="g3008-2-0-6-0"
         style="fill:#9f7d7d;fill-opacity:1;stroke:#9f7d7d;stroke-opacity:1">
        <circle
           id="circle3002-4-6-8-2"
           r="0.80000001"
           cy="0"
           cx="3"
           style="fill:#9f7d7d;fill-opacity:1;stroke:#9f7d7d;stroke-opacity:1" />
        <circle
           id="circle3004-7-1-8-1"
           r="0.80000001"
           cy="0"
           cx="6.5"
           style="fill:#9f7d7d;fill-opacity:1;stroke:#9f7d7d;stroke-opacity:1" />
        <circle
           id="circle3006-5-4-1-3"
           r="0.80000001"
           cy="0"
           cx="10"
           style="fill:#9f7d7d;fill-opacity:1;stroke:#9f7d7d;stroke-opacity:1" />
      </g>
    </marker>
    <inkscape:path-effect
       effect="bspline"
       id="path-effect2765-8-2-6-0"
       is_visible="true"
       weight="33.333333"
       steps="2"
       helper_size="0"
       apply_no_weight="true"
       apply_with_weight="true"
       only_selected="false" />
    <marker
       style="overflow:visible"
       inkscape:stockid="InfiniteLineEnd"
       id="InfiniteLineEnd-90"
       refX="0"
       refY="0"
       orient="auto"
       inkscape:isstock="true">
      <g
         id="g3008-26"
         style="fill:#9f7d7d;fill-opacity:1;stroke:#9f7d7d;stroke-opacity:1">
        <circle
           id="circle3002-1"
           r="0.80000001"
           cy="0"
           cx="3"
           style="fill:#9f7d7d;fill-opacity:1;stroke:#9f7d7d;stroke-opacity:1" />
        <circle
           id="circle3004-3"
           r="0.80000001"
           cy="0"
           cx="6.5"
           style="fill:#9f7d7d;fill-opacity:1;stroke:#9f7d7d;stroke-opacity:1" />
        <circle
           id="circle3006-9"
           r="0.80000001"
           cy="0"
           cx="10"
           style="fill:#9f7d7d;fill-opacity:1;stroke:#9f7d7d;stroke-opacity:1" />
      </g>
    </marker>
    <inkscape:path-effect
       effect="bspline"
       id="path-effect2765-4"
       is_visible="true"
       weight="33.333333"
       steps="2"
       helper_size="0"
       apply_no_weight="true"
       apply_with_weight="true"
       only_selected="false" />
  </defs>
  <sodipodi:namedview
     id="base"
     pagecolor="#ffffff"
     bordercolor="#666666"
     borderopacity="1.0"
     inkscape:pageopacity="0.0"
     inkscape:pageshadow="2"
     inkscape:zoom="0.98994949"
     inkscape:cx="259.78174"
     inkscape:cy="286.13332"
     inkscape:document-units="mm"
     inkscape:current-layer="layer1"
     showgrid="false"
     inkscape:measure-start="104,600.5"
     inkscape:measure-end="204,600.5"
     inkscape:window-width="1600"
     inkscape:window-height="837"
     inkscape:window-x="-8"
     inkscape:window-y="-8"
     inkscape:window-maximized="1" />
  <metadata
     id="metadata5">
    <rdf:RDF>
      <cc:Work
         rdf:about="">
        <dc:format>image/svg+xml</dc:format>
        <dc:type
           rdf:resource="http://purl.org/dc/dcmitype/StillImage" />
        <dc:title></dc:title>
      </cc:Work>
    </rdf:RDF>
  </metadata>
  <g
     inkscape:label="Calque 1"
     inkscape:groupmode="layer"
     id="layer1">
    <rect
       style="fill:#f79122;fill-opacity:1;stroke:#000000;stroke-width:0.53777814;stroke-linecap:round;stroke-linejoin:round;stroke-miterlimit:4;stroke-dasharray:none;stroke-opacity:1"
       id="rect815"
       width="134.39972"
       height="161.38722"
       x="0.26888907"
       y="135.3439"
       inkscape:export-filename="C:\Projets\ld44\LD44\LD44\Content\Board\boardBG.png"
       inkscape:export-xdpi="96"
       inkscape:export-ydpi="96" />
    <path
       style="fill:none;stroke:#9f7d7d;stroke-width:1.28826642;stroke-linecap:butt;stroke-linejoin:miter;stroke-miterlimit:4;stroke-dasharray:none;stroke-opacity:1;marker-end:url(#InfiniteLineEnd-9)"
       d="m 126.15781,232.27649 c -11.192,-3.93323 -22.38415,-7.86651 -33.223778,-7.18055 -10.839631,0.68597 -21.32662,5.99126 -30.888669,6.08276 -9.562048,0.0915 -18.198248,-5.03077 -25.072071,-6.44866 -6.873823,-1.4179 -11.985151,0.86887 -17.096843,3.1558"
       id="path2763-5"
       inkscape:connector-curvature="0"
       inkscape:path-effect="#path-effect2765-8"
       inkscape:original-d="m 126.15781,232.27649 c -11.19189,-3.93355 -22.38403,-7.86685 -33.576445,-11.79985 -10.487021,5.30516 -20.974009,10.61045 -31.461405,15.91608 -8.636459,-5.12284 -17.272659,-10.2451 -25.909385,-15.36725 -5.111164,2.28654 -10.222487,4.57332 -15.334126,6.86037"
       inkscape:export-filename="C:\Projets\ld44\LD44\LD44\Content\Board\boardBG.png"
       inkscape:export-xdpi="96"
       inkscape:export-ydpi="96" />
    <path
       style="fill:none;stroke:#9f7d7d;stroke-width:1.28826642;stroke-linecap:butt;stroke-linejoin:miter;stroke-miterlimit:4;stroke-dasharray:none;stroke-opacity:1;marker-end:url(#InfiniteLineEnd-9-0)"
       d="m 125.76557,176.0283 c -11.192,-3.93323 -22.38415,-7.86651 -33.223782,-7.18054 -10.839633,0.68597 -21.326617,5.99125 -30.888667,6.08275 -9.56205,0.0915 -18.198248,-5.03077 -25.072072,-6.44866 -6.873823,-1.4179 -11.985151,0.86887 -17.096843,3.1558"
       id="path2763-5-4"
       inkscape:connector-curvature="0"
       inkscape:path-effect="#path-effect2765-8-2"
       inkscape:original-d="m 125.76557,176.0283 c -11.19189,-3.93355 -22.38403,-7.86685 -33.576444,-11.79985 -10.48703,5.30516 -20.97401,10.61045 -31.46141,15.91608 -8.636459,-5.12284 -17.272657,-10.2451 -25.909385,-15.36725 -5.111163,2.28654 -10.222486,4.57332 -15.334125,6.86037"
       inkscape:export-filename="C:\Projets\ld44\LD44\LD44\Content\Board\boardBG.png"
       inkscape:export-xdpi="96"
       inkscape:export-ydpi="96" />
    <path
       style="fill:none;stroke:#9f7d7d;stroke-width:1.13096154;stroke-linecap:butt;stroke-linejoin:miter;stroke-miterlimit:4;stroke-dasharray:none;stroke-opacity:1;marker-end:url(#InfiniteLineEnd)"
       d="m 103.75476,286.65401 c -8.625705,-3.93325 -17.25147,-7.86654 -25.605517,-7.18056 -8.354046,0.68597 -16.436349,5.99126 -23.805841,6.08274 -7.369492,0.0915 -14.025395,-5.03078 -19.322995,-6.44866 -5.2976,-1.41788 -9.236892,0.86889 -13.176484,3.15583"
       id="path2763"
       inkscape:connector-curvature="0"
       inkscape:path-effect="#path-effect2765"
       inkscape:original-d="m 103.75476,286.65401 c -8.62557,-3.93355 -17.251327,-7.86685 -25.877306,-11.79985 -8.082322,5.30516 -16.164623,10.61045 -24.247237,15.91608 -6.656102,-5.12284 -13.312005,-10.2451 -19.968313,-15.36725 -3.939164,2.28654 -7.878451,4.57332 -11.817981,6.86037"
       inkscape:export-filename="C:\Projets\ld44\LD44\LD44\Content\Board\boardBG.png"
       inkscape:export-xdpi="96"
       inkscape:export-ydpi="96" />
    <path
       style="fill:none;stroke:#9f7d7d;stroke-width:1.28826642;stroke-linecap:butt;stroke-linejoin:miter;stroke-miterlimit:4;stroke-dasharray:none;stroke-opacity:1;marker-end:url(#InfiniteLineEnd-9-0-6)"
       d="m 7.3346528,204.62614 c 11.1920022,-3.93323 22.3841482,-7.86652 33.2237792,-7.18054 10.839632,0.68597 21.326617,5.99125 30.888668,6.08275 9.562051,0.0915 18.19825,-5.03077 25.072076,-6.44866 6.873824,-1.4179 11.985154,0.86887 17.096844,3.1558"
       id="path2763-5-4-4"
       inkscape:connector-curvature="0"
       inkscape:path-effect="#path-effect2765-8-2-6"
       inkscape:original-d="m 7.3346528,204.62614 c 11.1918902,-3.93355 22.3840302,-7.86685 33.5764402,-11.79985 10.48703,5.30516 20.974012,10.61045 31.46141,15.91608 8.636463,-5.12284 17.272663,-10.2451 25.909383,-15.36725 5.111174,2.28654 10.222494,4.57332 15.334134,6.86037"
       inkscape:export-filename="C:\Projets\ld44\LD44\LD44\Content\Board\boardBG.png"
       inkscape:export-xdpi="96"
       inkscape:export-ydpi="96" />
    <path
       style="fill:none;stroke:#9f7d7d;stroke-width:1.28826642;stroke-linecap:butt;stroke-linejoin:miter;stroke-miterlimit:4;stroke-dasharray:none;stroke-opacity:1;marker-end:url(#InfiniteLineEnd-9-0-6-0)"
       d="m 7.8691935,259.68366 c 11.1920025,-3.93323 22.3841495,-7.86652 33.2237815,-7.18054 10.839632,0.68597 21.326618,5.99125 30.888668,6.08275 9.562051,0.0915 18.19825,-5.03077 25.072074,-6.44866 6.873823,-1.4179 11.985153,0.86887 17.096843,3.1558"
       id="path2763-5-4-4-5"
       inkscape:connector-curvature="0"
       inkscape:path-effect="#path-effect2765-8-2-6-0"
       inkscape:original-d="m 7.8691935,259.68366 c 11.1918905,-3.93355 22.3840315,-7.86685 33.5764415,-11.79985 10.487031,5.30516 20.974013,10.61045 31.461413,15.91608 8.63646,-5.12284 17.27266,-10.2451 25.90938,-15.36725 5.111172,2.28654 10.222492,4.57332 15.334132,6.86037"
       inkscape:export-filename="C:\Projets\ld44\LD44\LD44\Content\Board\boardBG.png"
       inkscape:export-xdpi="96"
       inkscape:export-ydpi="96" />
    <path
       style="fill:none;stroke:#9f7d7d;stroke-width:1.13096154;stroke-linecap:butt;stroke-linejoin:miter;stroke-miterlimit:4;stroke-dasharray:none;stroke-opacity:1;marker-end:url(#InfiniteLineEnd-90)"
       d="m 8.3277542,151.29382 c 8.6257078,-3.93326 17.2514758,-7.86654 25.6055208,-7.18057 8.354045,0.68598 16.436347,5.99127 23.80584,6.08275 7.369493,0.0915 14.025396,-5.03078 19.322996,-6.44866 5.2976,-1.41788 9.236892,0.86889 13.176484,3.15583"
       id="path2763-6"
       inkscape:connector-curvature="0"
       inkscape:path-effect="#path-effect2765-4"
       inkscape:original-d="m 8.3277542,151.29382 c 8.6255738,-3.93355 17.2513338,-7.86685 25.8773078,-11.79985 8.082322,5.30516 16.164623,10.61045 24.247239,15.91608 6.656102,-5.12284 13.312005,-10.2451 19.968313,-15.36725 3.939164,2.28654 7.878451,4.57332 11.817981,6.86037"
       inkscape:export-filename="C:\Projets\ld44\LD44\LD44\Content\Board\way.png"
       inkscape:export-xdpi="96"
       inkscape:export-ydpi="96" />
    <image
       y="135.07503"
       x="26.987499"
       id="image825"
       xlink:href="data:image/png;base64,iVBORw0KGgoAAAANSUhEUgAAAAIAAAGiCAYAAADN3Rd+AAAABHNCSVQICAgIfAhkiAAAAAlwSFlz
AAAOxAAADsQBlSsOGwAAABl0RVh0U29mdHdhcmUAd3d3Lmlua3NjYXBlLm9yZ5vuPBoAAAAmSURB
VEiJ7caxAQAgDMCg1P9/1qVHOMDEVLfqtERERERERER+yAOu4gRDdFYbFAAAAABJRU5ErkJggg==
"
       preserveAspectRatio="none"
       height="161.92499"
       width="0.52916664"
       inkscape:export-filename="C:\Projets\ld44\LD44\LD44\Content\Board\boardBG.png"
       inkscape:export-xdpi="96"
       inkscape:export-ydpi="96" />
    <image
       y="135.07501"
       x="53.974998"
       id="image825-5"
       xlink:href="data:image/png;base64,iVBORw0KGgoAAAANSUhEUgAAAAIAAAGiCAYAAADN3Rd+AAAABHNCSVQICAgIfAhkiAAAAAlwSFlz AAAOxAAADsQBlSsOGwAAABl0RVh0U29mdHdhcmUAd3d3Lmlua3NjYXBlLm9yZ5vuPBoAAAAmSURB VEiJ7caxAQAgDMCg1P9/1qVHOMDEVLfqtERERERERER+yAOu4gRDdFYbFAAAAABJRU5ErkJggg== "
       preserveAspectRatio="none"
       height="161.92499"
       width="0.52916664"
       inkscape:export-filename="C:\Projets\ld44\LD44\LD44\Content\Board\boardBG.png"
       inkscape:export-xdpi="96"
       inkscape:export-ydpi="96" />
    <image
       y="135.07501"
       x="80.962502"
       id="image825-5-4"
       xlink:href="data:image/png;base64,iVBORw0KGgoAAAANSUhEUgAAAAIAAAGiCAYAAADN3Rd+AAAABHNCSVQICAgIfAhkiAAAAAlwSFlz AAAOxAAADsQBlSsOGwAAABl0RVh0U29mdHdhcmUAd3d3Lmlua3NjYXBlLm9yZ5vuPBoAAAAmSURB VEiJ7caxAQAgDMCg1P9/1qVHOMDEVLfqtERERERERER+yAOu4gRDdFYbFAAAAABJRU5ErkJggg== "
       preserveAspectRatio="none"
       height="161.92499"
       width="0.52916664"
       inkscape:export-filename="C:\Projets\ld44\LD44\LD44\Content\Board\boardBG.png"
       inkscape:export-xdpi="96"
       inkscape:export-ydpi="96" />
    <image
       y="135.07501"
       x="107.95"
       id="image825-5-4-9"
       xlink:href="data:image/png;base64,iVBORw0KGgoAAAANSUhEUgAAAAIAAAGiCAYAAADN3Rd+AAAABHNCSVQICAgIfAhkiAAAAAlwSFlz AAAOxAAADsQBlSsOGwAAABl0RVh0U29mdHdhcmUAd3d3Lmlua3NjYXBlLm9yZ5vuPBoAAAAmSURB VEiJ7caxAQAgDMCg1P9/1qVHOMDEVLfqtERERERERER+yAOu4gRDdFYbFAAAAABJRU5ErkJggg== "
       preserveAspectRatio="none"
       height="161.92499"
       width="0.52916664"
       inkscape:export-filename="C:\Projets\ld44\LD44\LD44\Content\Board\boardBG.png"
       inkscape:export-xdpi="96"
       inkscape:export-ydpi="96" />
    <image
       y="-134.9375"
       x="269.48334"
       id="image825-5-43"
       xlink:href="data:image/png;base64,iVBORw0KGgoAAAANSUhEUgAAAAIAAAGiCAYAAADN3Rd+AAAABHNCSVQICAgIfAhkiAAAAAlwSFlz AAAOxAAADsQBlSsOGwAAABl0RVh0U29mdHdhcmUAd3d3Lmlua3NjYXBlLm9yZ5vuPBoAAAAmSURB VEiJ7caxAQAgDMCg1P9/1qVHOMDEVLfqtERERERERER+yAOu4gRDdFYbFAAAAABJRU5ErkJggg== "
       preserveAspectRatio="none"
       height="134.9375"
       width="0.52916664"
       transform="rotate(90)"
       inkscape:export-filename="C:\Projets\ld44\LD44\LD44\Content\Board\boardBG.png"
       inkscape:export-xdpi="96"
       inkscape:export-ydpi="96" />
    <image
       y="-134.9375"
       x="242.49583"
       id="image825-5-43-7"
       xlink:href="data:image/png;base64,iVBORw0KGgoAAAANSUhEUgAAAAIAAAGiCAYAAADN3Rd+AAAABHNCSVQICAgIfAhkiAAAAAlwSFlz AAAOxAAADsQBlSsOGwAAABl0RVh0U29mdHdhcmUAd3d3Lmlua3NjYXBlLm9yZ5vuPBoAAAAmSURB VEiJ7caxAQAgDMCg1P9/1qVHOMDEVLfqtERERERERER+yAOu4gRDdFYbFAAAAABJRU5ErkJggg== "
       preserveAspectRatio="none"
       height="134.9375"
       width="0.52916664"
       transform="rotate(90)"
       inkscape:export-filename="C:\Projets\ld44\LD44\LD44\Content\Board\boardBG.png"
       inkscape:export-xdpi="96"
       inkscape:export-ydpi="96" />
    <image
       y="-134.9375"
       x="215.50833"
       id="image825-5-43-7-1"
       xlink:href="data:image/png;base64,iVBORw0KGgoAAAANSUhEUgAAAAIAAAGiCAYAAADN3Rd+AAAABHNCSVQICAgIfAhkiAAAAAlwSFlz AAAOxAAADsQBlSsOGwAAABl0RVh0U29mdHdhcmUAd3d3Lmlua3NjYXBlLm9yZ5vuPBoAAAAmSURB VEiJ7caxAQAgDMCg1P9/1qVHOMDEVLfqtERERERERER+yAOu4gRDdFYbFAAAAABJRU5ErkJggg== "
       preserveAspectRatio="none"
       height="134.9375"
       width="0.52916664"
       transform="rotate(90)"
       inkscape:export-filename="C:\Projets\ld44\LD44\LD44\Content\Board\boardBG.png"
       inkscape:export-xdpi="96"
       inkscape:export-ydpi="96" />
    <image
       y="-134.9375"
       x="188.52083"
       id="image825-5-43-7-1-0"
       xlink:href="data:image/png;base64,iVBORw0KGgoAAAANSUhEUgAAAAIAAAGiCAYAAADN3Rd+AAAABHNCSVQICAgIfAhkiAAAAAlwSFlz AAAOxAAADsQBlSsOGwAAABl0RVh0U29mdHdhcmUAd3d3Lmlua3NjYXBlLm9yZ5vuPBoAAAAmSURB VEiJ7caxAQAgDMCg1P9/1qVHOMDEVLfqtERERERERER+yAOu4gRDdFYbFAAAAABJRU5ErkJggg== "
       preserveAspectRatio="none"
       height="134.9375"
       width="0.52916664"
       transform="rotate(90)"
       inkscape:export-filename="C:\Projets\ld44\LD44\LD44\Content\Board\boardBG.png"
       inkscape:export-xdpi="96"
       inkscape:export-ydpi="96" />
    <image
       y="-134.9375"
       x="161.53334"
       id="image825-5-43-7-1-0-9"
       xlink:href="data:image/png;base64,iVBORw0KGgoAAAANSUhEUgAAAAIAAAGiCAYAAADN3Rd+AAAABHNCSVQICAgIfAhkiAAAAAlwSFlz AAAOxAAADsQBlSsOGwAAABl0RVh0U29mdHdhcmUAd3d3Lmlua3NjYXBlLm9yZ5vuPBoAAAAmSURB VEiJ7caxAQAgDMCg1P9/1qVHOMDEVLfqtERERERERER+yAOu4gRDdFYbFAAAAABJRU5ErkJggg== "
       preserveAspectRatio="none"
       height="134.9375"
       width="0.52916664"
       transform="rotate(90)"
       inkscape:export-filename="C:\Projets\ld44\LD44\LD44\Content\Board\boardBG.png"
       inkscape:export-xdpi="96"
       inkscape:export-ydpi="96" />
    <text
       xml:space="preserve"
       style="font-style:normal;font-weight:normal;font-size:10.58333302px;line-height:1.25;font-family:sans-serif;letter-spacing:0px;word-spacing:0px;fill:#000000;fill-opacity:1;stroke:none;stroke-width:0.26458332"
       x="109.03512"
       y="286.55487"
       id="text3866"
       inkscape:export-filename="C:\Projets\ld44\LD44\LD44\Content\Board\boardBG.png"
       inkscape:export-xdpi="96"
       inkscape:export-ydpi="96"><tspan
         sodipodi:role="line"
         id="tspan3864"
         x="109.03512"
         y="286.55487"
         style="font-size:9.87777805px;fill:#5f503e;fill-opacity:1;stroke-width:0.26458332">Start</tspan></text>
    <text
       xml:space="preserve"
       style="font-style:normal;font-weight:normal;font-size:10.58333302px;line-height:1.25;font-family:sans-serif;letter-spacing:0px;word-spacing:0px;fill:#000000;fill-opacity:1;stroke:none;stroke-width:0.26458332"
       x="111.46368"
       y="152.26108"
       id="text3866-0"
       inkscape:export-filename="C:\Projets\ld44\LD44\LD44\Content\Board\boardBG.png"
       inkscape:export-xdpi="96"
       inkscape:export-ydpi="96"><tspan
         sodipodi:role="line"
         id="tspan3864-6"
         x="111.46368"
         y="152.26108"
         style="font-size:9.87777805px;fill:#5f503e;fill-opacity:1;stroke-width:0.26458332">LD !</tspan></text>
    <rect
       style="fill:#b8a7a6;fill-opacity:1;stroke:#000000;stroke-width:0.61213952;stroke-linecap:round;stroke-linejoin:round;stroke-miterlimit:4;stroke-dasharray:none;stroke-opacity:1"
       id="rect1508"
       width="52.304527"
       height="161.30917"
       x="134.70763"
       y="135.38292"
       inkscape:export-filename="C:\Projets\ld44\LD44\LD44\Content\Board\boardData.png"
       inkscape:export-xdpi="96"
       inkscape:export-ydpi="96" />
  </g>
</svg>
